Lab4/waveform1.vcd
$version Generated by VerilatedVcd $end
$timescale 1ps $end
 $scope module TOP $end
  $var wire 1 r clk [0:0] $end
  $var wire 1 s rst [0:0] $end
  $var wire 1 t commit [0:0] $end
  $var wire 1 u commit_halt [0:0] $end
  $var wire 32 v commit_pc [31:0] $end
  $var wire 32 w commit_instr [31:0] $end
  $var wire 1 x commit_reg_we [0:0] $end
  $var wire 5 y commit_reg_wa [4:0] $end
  $var wire 32 z commit_reg_wd [31:0] $end
  $var wire 1 { commit_dmem_we [0:0] $end
  $var wire 16 | commit_dmem_wa [15:0] $end
  $var wire 32 } commit_dmem_wd [31:0] $end
  $var wire 5 ~ debug_reg_ra [4:0] $end
  $var wire 32 !! debug_reg_rd [31:0] $end
  $var wire 16 "! debug_dmem_ra [15:0] $end
  $var wire 32 #! debug_dmem_rd [31:0] $end
  $scope module Top $end
   $var wire 1 r clk [0:0] $end
   $var wire 1 s rst [0:0] $end
   $var wire 1 t commit [0:0] $end
   $var wire 1 u commit_halt [0:0] $end
   $var wire 32 v commit_pc [31:0] $end
   $var wire 32 w commit_instr [31:0] $end
   $var wire 1 x commit_reg_we [0:0] $end
   $var wire 5 y commit_reg_wa [4:0] $end
   $var wire 32 z commit_reg_wd [31:0] $end
   $var wire 1 { commit_dmem_we [0:0] $end
   $var wire 16 | commit_dmem_wa [15:0] $end
   $var wire 32 } commit_dmem_wd [31:0] $end
   $var wire 5 ~ debug_reg_ra [4:0] $end
   $var wire 32 !! debug_reg_rd [31:0] $end
   $var wire 16 "! debug_dmem_ra [15:0] $end
   $var wire 32 #! debug_dmem_rd [31:0] $end
   $var wire 32 $ pc [31:0] $end
   $var wire 32 % instr [31:0] $end
   $var wire 32 & dmem_addr [31:0] $end
   $var wire 32 ' dmem_rdata [31:0] $end
   $var wire 32 ( dmem_wdata [31:0] $end
   $var wire 1 ) dmem_we [0:0] $end
   $var wire 32 * commit_dmem_wa_raw [31:0] $end
   $scope module cpu $end
    $var wire 1 r clk [0:0] $end
    $var wire 1 s rst [0:0] $end
    $var wire 1 $! global_en [0:0] $end
    $var wire 32 $ imem_raddr [31:0] $end
    $var wire 32 % imem_rdata [31:0] $end
    $var wire 32 ' dmem_rdata [31:0] $end
    $var wire 1 ) dmem_we [0:0] $end
    $var wire 32 & dmem_addr [31:0] $end
    $var wire 32 ( dmem_wdata [31:0] $end
    $var wire 1 t commit [0:0] $end
    $var wire 32 v commit_pc [31:0] $end
    $var wire 32 w commit_instr [31:0] $end
    $var wire 1 u commit_halt [0:0] $end
    $var wire 1 x commit_reg_we [0:0] $end
    $var wire 5 y commit_reg_wa [4:0] $end
    $var wire 32 z commit_reg_wd [31:0] $end
    $var wire 1 { commit_dmem_we [0:0] $end
    $var wire 32 * commit_dmem_wa [31:0] $end
    $var wire 32 } commit_dmem_wd [31:0] $end
    $var wire 5 ~ debug_reg_ra [4:0] $end
    $var wire 32 !! debug_reg_rd [31:0] $end
    $var wire 32 $ pc_current [31:0] $end
    $var wire 32 + pc_add4 [31:0] $end
    $var wire 32 , pc_next [31:0] $end
    $var wire 32 & pc_offset [31:0] $end
    $var wire 32 & pc_j [31:0] $end
    $var wire 2 - npc_sel [1:0] $end
    $var wire 32 . inst [31:0] $end
    $var wire 5 / alu_op [4:0] $end
    $var wire 32 0 imm [31:0] $end
    $var wire 5 1 rf_ra0 [4:0] $end
    $var wire 5 2 rf_ra1 [4:0] $end
    $var wire 5 3 rf_wa [4:0] $end
    $var wire 1 4 rf_we $end
    $var wire 1 ) datamem_we $end
    $var wire 1 5 alu_src0_sel $end
    $var wire 1 6 alu_src1_sel $end
    $var wire 2 7 rf_wd_sel [1:0] $end
    $var wire 4 8 br_type [3:0] $end
    $var wire 4 9 dmem_access [3:0] $end
    $var wire 32 : rf_rd0 [31:0] $end
    $var wire 32 ; rf_rd1 [31:0] $end
    $var wire 32 < rf_wd [31:0] $end
    $var wire 32 = dmem_rd_out [31:0] $end
    $var wire 32 > alu_src0 [31:0] $end
    $var wire 32 ? alu_src1 [31:0] $end
    $var wire 32 & alu_result [31:0] $end
    $var wire 1 @ commit_reg [0:0] $end
    $var wire 32 A commit_pc_reg [31:0] $end
    $var wire 32 B commit_inst_reg [31:0] $end
    $var wire 1 C commit_halt_reg [0:0] $end
    $var wire 1 D commit_reg_we_reg [0:0] $end
    $var wire 5 E commit_reg_wa_reg [4:0] $end
    $var wire 32 F commit_reg_wd_reg [31:0] $end
    $var wire 1 G commit_dmem_we_reg [0:0] $end
    $var wire 32 * commit_dmem_wa_reg [31:0] $end
    $var wire 32 H commit_dmem_wd_reg [31:0] $end
    $scope module RF_WD_MUX $end
     $var wire 32 %! WIDTH [31:0] $end
     $var wire 32 + src0 [31:0] $end
     $var wire 32 & src1 [31:0] $end
     $var wire 32 = src2 [31:0] $end
     $var wire 32 &! src3 [31:0] $end
     $var wire 2 7 sel [1:0] $end
     $var wire 32 < res [31:0] $end
    $upscope $end
    $scope module alu $end
     $var wire 32 > alu_src0 [31:0] $end
     $var wire 32 ? alu_src1 [31:0] $end
     $var wire 5 / alu_op [4:0] $end
     $var wire 32 & alu_result [31:0] $end
    $upscope $end
    $scope module branch $end
     $var wire 4 8 br_type [3:0] $end
     $var wire 32 : br_src0 [31:0] $end
     $var wire 32 ; br_src1 [31:0] $end
     $var wire 2 - npc_sel [1:0] $end
    $upscope $end
    $scope module decoder $end
     $var wire 32 . inst [31:0] $end
     $var wire 5 / alu_op [4:0] $end
     $var wire 1 5 alu_src0_sel $end
     $var wire 1 6 alu_src1_sel $end
     $var wire 5 1 rf_ra0 [4:0] $end
     $var wire 5 2 rf_ra1 [4:0] $end
     $var wire 5 3 rf_wa [4:0] $end
     $var wire 1 4 rf_we $end
     $var wire 2 7 rf_wd_sel [1:0] $end
     $var wire 4 9 dmem_access [3:0] $end
     $var wire 4 8 br_type [3:0] $end
     $var wire 32 0 imm [31:0] $end
     $var wire 1 ) dmem_we $end
     $var wire 7 I opcode [6:0] $end
     $var wire 5 J rd [4:0] $end
     $var wire 3 K funct3 [2:0] $end
     $var wire 7 L funct7 [6:0] $end
     $var wire 5 M rs1 [4:0] $end
     $var wire 5 N rs2 [4:0] $end
    $upscope $end
    $scope module global_regfile $end
     $var wire 1 r clk [0:0] $end
     $var wire 5 1 rf_ra0 [4:0] $end
     $var wire 5 2 rf_ra1 [4:0] $end
     $var wire 5 3 rf_wa [4:0] $end
     $var wire 1 4 rf_we [0:0] $end
     $var wire 32 < rf_wd [31:0] $end
     $var wire 32 : rf_rd0 [31:0] $end
     $var wire 32 ; rf_rd1 [31:0] $end
     $var wire 5 ~ debug_reg_ra [4:0] $end
     $var wire 32 !! debug_reg_rd [31:0] $end
     $var wire 32 O reg_file[0] [31:0] $end
     $var wire 32 P reg_file[1] [31:0] $end
     $var wire 32 Q reg_file[2] [31:0] $end
     $var wire 32 R reg_file[3] [31:0] $end
     $var wire 32 S reg_file[4] [31:0] $end
     $var wire 32 T reg_file[5] [31:0] $end
     $var wire 32 U reg_file[6] [31:0] $end
     $var wire 32 V reg_file[7] [31:0] $end
     $var wire 32 W reg_file[8] [31:0] $end
     $var wire 32 X reg_file[9] [31:0] $end
     $var wire 32 Y reg_file[10] [31:0] $end
     $var wire 32 Z reg_file[11] [31:0] $end
     $var wire 32 [ reg_file[12] [31:0] $end
     $var wire 32 \ reg_file[13] [31:0] $end
     $var wire 32 ] reg_file[14] [31:0] $end
     $var wire 32 ^ reg_file[15] [31:0] $end
     $var wire 32 _ reg_file[16] [31:0] $end
     $var wire 32 ` reg_file[17] [31:0] $end
     $var wire 32 a reg_file[18] [31:0] $end
     $var wire 32 b reg_file[19] [31:0] $end
     $var wire 32 c reg_file[20] [31:0] $end
     $var wire 32 d reg_file[21] [31:0] $end
     $var wire 32 e reg_file[22] [31:0] $end
     $var wire 32 f reg_file[23] [31:0] $end
     $var wire 32 g reg_file[24] [31:0] $end
     $var wire 32 h reg_file[25] [31:0] $end
     $var wire 32 i reg_file[26] [31:0] $end
     $var wire 32 j reg_file[27] [31:0] $end
     $var wire 32 k reg_file[28] [31:0] $end
     $var wire 32 l reg_file[29] [31:0] $end
     $var wire 32 m reg_file[30] [31:0] $end
     $var wire 32 n reg_file[31] [31:0] $end
     $var wire 32 # i [31:0] $end
    $upscope $end
    $scope module mux0 $end
     $var wire 32 : src0 [31:0] $end
     $var wire 32 $ src1 [31:0] $end
     $var wire 1 5 sel [0:0] $end
     $var wire 32 > res [31:0] $end
    $upscope $end
    $scope module mux1 $end
     $var wire 32 ; src0 [31:0] $end
     $var wire 32 0 src1 [31:0] $end
     $var wire 1 6 sel [0:0] $end
     $var wire 32 ? res [31:0] $end
    $upscope $end
    $scope module pc_mux $end
     $var wire 32 %! WIDTH [31:0] $end
     $var wire 32 + src0 [31:0] $end
     $var wire 32 & src1 [31:0] $end
     $var wire 32 & src2 [31:0] $end
     $var wire 32 & src3 [31:0] $end
     $var wire 2 - sel [1:0] $end
     $var wire 32 , res [31:0] $end
    $upscope $end
    $scope module pc_reg $end
     $var wire 1 r clk [0:0] $end
     $var wire 1 s rst [0:0] $end
     $var wire 1 $! en [0:0] $end
     $var wire 32 , npc [31:0] $end
     $var wire 32 $ pc [31:0] $end
    $upscope $end
    $scope module sl_unit $end
     $var wire 32 & addr [31:0] $end
     $var wire 4 9 dmem_access [3:0] $end
     $var wire 32 ' rd_in [31:0] $end
     $var wire 32 ; wd_in [31:0] $end
     $var wire 32 = rd_out [31:0] $end
     $var wire 32 ( wd_out [31:0] $end
     $var wire 2 o byte_offset [1:0] $end
    $upscope $end
   $upscope $end
   $scope module data_mem $end
    $var wire 16 p a [15:0] $end
    $var wire 32 ( d [31:0] $end
    $var wire 1 r clk $end
    $var wire 1 ) we $end
    $var wire 32 ' spo [31:0] $end
    $var wire 16 "! debug_a [15:0] $end
    $var wire 32 #! debug_spo [31:0] $end
    $var wire 1 ) cached_we $end
    $var wire 16 p cached_a [15:0] $end
    $var wire 32 ( cached_d [31:0] $end
   $upscope $end
   $scope module instr_mem $end
    $var wire 16 q a [15:0] $end
    $var wire 32 % spo [31:0] $end
   $upscope $end
  $upscope $end
 $upscope $end
$enddefinitions $end


#0
b00000000000000000000000000100000 #
b00000000010000000000000000000000 $
b01110000000010001001000000110111 %
b01110000000010001001000000000000 &
b00000000000000000000000000000000 '
b00000000000000000000000000000000 (
0)
b00000000000000000000000000000000 *
b00000000010000000000000000000100 +
b00000000010000000000000000000100 ,
b00 -
b01110000000010001001000000110111 .
b01010 /
b01110000000010001001000000000000 0
b00000 1
b00000 2
b00000 3
14
05
16
b01 7
b1111 8
b0000 9
b00000000000000000000000000000000 :
b00000000000000000000000000000000 ;
b01110000000010001001000000000000 <
b00000000000000000000000000000000 =
b00000000000000000000000000000000 >
b01110000000010001001000000000000 ?
0@
b00000000010000000000000000000000 A
b00000000000000000000000000000000 B
0C
0D
b00000 E
b00000000000000000000000000000000 F
0G
b00000000000000000000000000000000 H
b0110111 I
b00000 J
b001 K
b0111000 L
b10001 M
b00000 N
b00000000000000000000000000000000 O
b00000000000000000000000000000000 P
b00000000000000000000000000000000 Q
b00000000000000000000000000000000 R
b00000000000000000000000000000000 S
b00000000000000000000000000000000 T
b00000000000000000000000000000000 U
b00000000000000000000000000000000 V
b00000000000000000000000000000000 W
b00000000000000000000000000000000 X
b00000000000000000000000000000000 Y
b00000000000000000000000000000000 Z
b00000000000000000000000000000000 [
b00000000000000000000000000000000 \
b00000000000000000000000000000000 ]
b00000000000000000000000000000000 ^
b00000000000000000000000000000000 _
b00000000000000000000000000000000 `
b00000000000000000000000000000000 a
b00000000000000000000000000000000 b
b00000000000000000000000000000000 c
b00000000000000000000000000000000 d
b00000000000000000000000000000000 e
b00000000000000000000000000000000 f
b00000000000000000000000000000000 g
b00000000000000000000000000000000 h
b00000000000000000000000000000000 i
b00000000000000000000000000000000 j
b00000000000000000000000000000000 k
b00000000000000000000000000000000 l
b00000000000000000000000000000000 m
b00000000000000000000000000000000 n
b00 o
b0010010000000000 p
b0000000000000000 q
1r
1s
0t
0u
b00000000010000000000000000000000 v
b00000000000000000000000000000000 w
0x
b00000 y
b00000000000000000000000000000000 z
0{
b0000000000000000 |
b00000000000000000000000000000000 }
b00000 ~
b00000000000000000000000000000000 !!
b0000000000000000 "!
b00000000000000000000000000000000 #!
1$!
b00000000000000000000000000100000 %!
b00000000000000000000000000000000 &!
#1
0r
#2
b00000000010000000000000000000100 $
b10000000000000000000000000010011 %
b11111111111111111111100000000000 &
b01110000000010001001000000000000 *
b00000000010000000000000000001000 +
b00000000010000000000000000001000 ,
b10000000000000000000000000010011 .
b00000 /
b11111111111111111111100000000000 0
b11111111111111111111100000000000 <
b11111111111111111111100000000000 ?
1@
b01110000000010001001000000110111 B
1D
b01110000000010001001000000000000 F
b0010011 I
b000 K
b1000000 L
b00000 M
b1111111000000000 p
b0000000000000001 q
1r
0s
1t
b01110000000010001001000000110111 w
1x
b01110000000010001001000000000000 z
b0010010000000000 |
#3
0r
#4
b00000000010000000000000000001000 $
b01011011001010111101000010110111 %
b01011011001010111101000000000000 &
b11111111111111111111100000000000 *
b00000000010000000000000000001100 +
b00000000010000000000000000001100 ,
b01011011001010111101000010110111 .
b01010 /
b01011011001010111101000000000000 0
b00001 3
b01011011001010111101000000000000 <
b01011011001010111101000000000000 ?
b00000000010000000000000000000100 A
b10000000000000000000000000010011 B
b11111111111111111111100000000000 F
b0110111 I
b00001 J
b101 K
b0101101 L
b10111 M
b10010 N
b1111010000000000 p
b0000000000000010 q
1r
b00000000010000000000000000000100 v
b10000000000000000000000000010011 w
b11111111111111111111100000000000 z
b1111111000000000 |
b11111 ~
#5
0r
#6
b00000000010000000000000000001100 $
b11101101101000001000000010010011 %
b01011011001010111100111011011010 &
b01011011001010111101000000000000 *
b00000000010000000000000000010000 +
b00000000010000000000000000010000 ,
b11101101101000001000000010010011 .
b00000 /
b11111111111111111111111011011010 0
b00001 1
b01011011001010111101000000000000 :
b01011011001010111100111011011010 <
b01011011001010111101000000000000 >
b11111111111111111111111011011010 ?
b00000000010000000000000000001000 A
b01011011001010111101000010110111 B
b00001 E
b01011011001010111101000000000000 F
b0010011 I
b000 K
b1110110 L
b00001 M
b11010 N
b01011011001010111101000000000000 P
b10 o
b1111001110110110 p
b0000000000000011 q
1r
b00000000010000000000000000001000 v
b01011011001010111101000010110111 w
b00001 y
b01011011001010111101000000000000 z
b1111010000000000 |
#7
0r
#8
b00000000010000000000000000010000 $
b00110010110010001001000100110111 %
b00110010110010001001000000000000 &
b01011011001010111100111011011010 *
b00000000010000000000000000010100 +
b00000000010000000000000000010100 ,
b00110010110010001001000100110111 .
b01010 /
b00110010110010001001000000000000 0
b00000 1
b00010 3
b00000000000000000000000000000000 :
b00110010110010001001000000000000 <
b00000000000000000000000000000000 >
b00110010110010001001000000000000 ?
b00000000010000000000000000001100 A
b11101101101000001000000010010011 B
b01011011001010111100111011011010 F
b0110111 I
b00010 J
b001 K
b0011001 L
b10001 M
b01100 N
b01011011001010111100111011011010 P
b00 o
b0010010000000000 p
b0000000000000100 q
1r
b00000000010000000000000000001100 v
b11101101101000001000000010010011 w
b01011011001010111100111011011010 z
b1111001110110110 |
#9
0r
#10
b00000000010000000000000000010100 $
b11000100001000010000000100010011 %
b00110010110010001000110001000010 &
b00110010110010001001000000000000 *
b00000000010000000000000000011000 +
b00000000010000000000000000011000 ,
b11000100001000010000000100010011 .
b00000 /
b11111111111111111111110001000010 0
b00010 1
b00110010110010001001000000000000 :
b00110010110010001000110001000010 <
b00110010110010001001000000000000 >
b11111111111111111111110001000010 ?
b00000000010000000000000000010000 A
b00110010110010001001000100110111 B
b00010 E
b00110010110010001001000000000000 F
b0010011 I
b000 K
b1100010 L
b00010 M
b00010 N
b00110010110010001001000000000000 Q
b10 o
b0010001100010000 p
b0000000000000101 q
1r
b00000000010000000000000000010000 v
b00110010110010001001000100110111 w
b00010 y
b00110010110010001001000000000000 z
b0010010000000000 |
#11
0r
#12
b00000000010000000000000000011000 $
b10001110001001010111000110110111 %
b10001110001001010111000000000000 &
b00110010110010001000110001000010 *
b00000000010000000000000000011100 +
b00000000010000000000000000011100 ,
b10001110001001010111000110110111 .
b01010 /
b10001110001001010111000000000000 0
b00000 1
b00011 3
b00000000000000000000000000000000 :
b10001110001001010111000000000000 <
b00000000000000000000000000000000 >
b10001110001001010111000000000000 ?
b00000000010000000000000000010100 A
b11000100001000010000000100010011 B
b00110010110010001000110001000010 F
b0110111 I
b00011 J
b111 K
b1000111 L
b01010 M
b00110010110010001000110001000010 Q
b00 o
b0101110000000000 p
b0000000000000110 q
1r
b00000000010000000000000000010100 v
b11000100001000010000000100010011 w
b00110010110010001000110001000010 z
b0010001100010000 |
#13
0r
#14
b00000000010000000000000000011100 $
b00111101001000011000000110010011 %
b10001110001001010111001111010010 &
b10001110001001010111000000000000 *
b00000000010000000000000000100000 +
b00000000010000000000000000100000 ,
b00111101001000011000000110010011 .
b00000 /
b00000000000000000000001111010010 0
b00011 1
b10001110001001010111000000000000 :
b10001110001001010111001111010010 <
b10001110001001010111000000000000 >
b00000000000000000000001111010010 ?
b00000000010000000000000000011000 A
b10001110001001010111000110110111 B
b00011 E
b10001110001001010111000000000000 F
b0010011 I
b000 K
b0011110 L
b00011 M
b10010 N
b10001110001001010111000000000000 R
b10 o
b0101110011110100 p
b0000000000000111 q
1r
b00000000010000000000000000011000 v
b10001110001001010111000110110111 w
b00011 y
b10001110001001010111000000000000 z
b0101110000000000 |
#15
0r
#16
b00000000010000000000000000100000 $
b10010111110000111100001000110111 %
b10010111110000111100000000000000 &
b10001110001001010111001111010010 *
b00000000010000000000000000100100 +
b00000000010000000000000000100100 ,
b10010111110000111100001000110111 .
b01010 /
b10010111110000111100000000000000 0
b00000 1
b00100 3
b00000000000000000000000000000000 :
b10010111110000111100000000000000 <
b00000000000000000000000000000000 >
b10010111110000111100000000000000 ?
b00000000010000000000000000011100 A
b00111101001000011000000110010011 B
b10001110001001010111001111010010 F
b0110111 I
b00100 J
b100 K
b1001011 L
b00111 M
b11100 N
b10001110001001010111001111010010 R
b00 o
b1111000000000000 p
b0000000000001000 q
1r
b00000000010000000000000000011100 v
b00111101001000011000000110010011 w
b10001110001001010111001111010010 z
b0101110011110100 |
#17
0r
#18
b00000000010000000000000000100100 $
b11111000001100100000001000010011 %
b10010111110000111011111110000011 &
b10010111110000111100000000000000 *
b00000000010000000000000000101000 +
b00000000010000000000000000101000 ,
b11111000001100100000001000010011 .
b00000 /
b11111111111111111111111110000011 0
b00100 1
b10010111110000111100000000000000 :
b10010111110000111011111110000011 <
b10010111110000111100000000000000 >
b11111111111111111111111110000011 ?
b00000000010000000000000000100000 A
b10010111110000111100001000110111 B
b00100 E
b10010111110000111100000000000000 F
b0010011 I
b000 K
b1111100 L
b00100 M
b00011 N
b10010111110000111100000000000000 S
b11 o
b1110111111100000 p
b0000000000001001 q
1r
b00000000010000000000000000100000 v
b10010111110000111100001000110111 w
b00100 y
b10010111110000111100000000000000 z
b1111000000000000 |
#19
0r
#20
b00000000010000000000000000101000 $
b00101010000100010100001010110111 %
b00101010000100010100000000000000 &
b10010111110000111011111110000011 *
b00000000010000000000000000101100 +
b00000000010000000000000000101100 ,
b00101010000100010100001010110111 .
b01010 /
b00101010000100010100000000000000 0
b00000 1
b00101 3
b00000000000000000000000000000000 :
b00101010000100010100000000000000 <
b00000000000000000000000000000000 >
b00101010000100010100000000000000 ?
b00000000010000000000000000100100 A
b11111000001100100000001000010011 B
b10010111110000111011111110000011 F
b0110111 I
b00101 J
b100 K
b0010101 L
b00010 M
b00001 N
b10010111110000111011111110000011 S
b00 o
b0101000000000000 p
b0000000000001010 q
1r
b00000000010000000000000000100100 v
b11111000001100100000001000010011 w
b10010111110000111011111110000011 z
b1110111111100000 |
#21
0r
#22
b00000000010000000000000000101100 $
b11100000010100101000001010010011 %
b00101010000100010011111000000101 &
b00101010000100010100000000000000 *
b00000000010000000000000000110000 +
b00000000010000000000000000110000 ,
b11100000010100101000001010010011 .
b00000 /
b11111111111111111111111000000101 0
b00101 1
b00101010000100010100000000000000 :
b00101010000100010011111000000101 <
b00101010000100010100000000000000 >
b11111111111111111111111000000101 ?
b00000000010000000000000000101000 A
b00101010000100010100001010110111 B
b00101 E
b00101010000100010100000000000000 F
b0010011 I
b000 K
b1110000 L
b00101 M
b00101 N
b00101010000100010100000000000000 T
b01 o
b0100111110000001 p
b0000000000001011 q
1r
b00000000010000000000000000101000 v
b00101010000100010100001010110111 w
b00101 y
b00101010000100010100000000000000 z
b0101000000000000 |
#23
0r
#24
b00000000010000000000000000110000 $
b10101110010100010101001100110111 %
b10101110010100010101000000000000 &
b00101010000100010011111000000101 *
b00000000010000000000000000110100 +
b00000000010000000000000000110100 ,
b10101110010100010101001100110111 .
b01010 /
b10101110010100010101000000000000 0
b00000 1
b00110 3
b00000000000000000000000000000000 :
b10101110010100010101000000000000 <
b00000000000000000000000000000000 >
b10101110010100010101000000000000 ?
b00000000010000000000000000101100 A
b11100000010100101000001010010011 B
b00101010000100010011111000000101 F
b0110111 I
b00110 J
b101 K
b1010111 L
b00010 M
b00101010000100010011111000000101 T
b00 o
b0101010000000000 p
b0000000000001100 q
1r
b00000000010000000000000000101100 v
b11100000010100101000001010010011 w
b00101010000100010011111000000101 z
b0100111110000001 |
#25
0r
#26
b00000000010000000000000000110100 $
b11000010000100110000001100010011 %
b10101110010100010100110000100001 &
b10101110010100010101000000000000 *
b00000000010000000000000000111000 +
b00000000010000000000000000111000 ,
b11000010000100110000001100010011 .
b00000 /
b11111111111111111111110000100001 0
b00110 1
b10101110010100010101000000000000 :
b10101110010100010100110000100001 <
b10101110010100010101000000000000 >
b11111111111111111111110000100001 ?
b00000000010000000000000000110000 A
b10101110010100010101001100110111 B
b00110 E
b10101110010100010101000000000000 F
b0010011 I
b000 K
b1100001 L
b00110 M
b00001 N
b10101110010100010101000000000000 U
b01 o
b0101001100001000 p
b0000000000001101 q
1r
b00000000010000000000000000110000 v
b10101110010100010101001100110111 w
b00110 y
b10101110010100010101000000000000 z
b0101010000000000 |
#27
0r
#28
b00000000010000000000000000111000 $
b10111100100000001111001110110111 %
b10111100100000001111000000000000 &
b10101110010100010100110000100001 *
b00000000010000000000000000111100 +
b00000000010000000000000000111100 ,
b10111100100000001111001110110111 .
b01010 /
b10111100100000001111000000000000 0
b00000 1
b00111 3
b00000000000000000000000000000000 :
b10111100100000001111000000000000 <
b00000000000000000000000000000000 >
b10111100100000001111000000000000 ?
b00000000010000000000000000110100 A
b11000010000100110000001100010011 B
b10101110010100010100110000100001 F
b0110111 I
b00111 J
b111 K
b1011110 L
b00001 M
b01000 N
b10101110010100010100110000100001 U
b00 o
b0011110000000000 p
b0000000000001110 q
1r
b00000000010000000000000000110100 v
b11000010000100110000001100010011 w
b10101110010100010100110000100001 z
b0101001100001000 |
#29
0r
#30
b00000000010000000000000000111100 $
b01001001010000111000001110010011 %
b10111100100000001111010010010100 &
b10111100100000001111000000000000 *
b00000000010000000000000001000000 +
b00000000010000000000000001000000 ,
b01001001010000111000001110010011 .
b00000 /
b00000000000000000000010010010100 0
b00111 1
b10111100100000001111000000000000 :
b10111100100000001111010010010100 <
b10111100100000001111000000000000 >
b00000000000000000000010010010100 ?
b00000000010000000000000000111000 A
b10111100100000001111001110110111 B
b00111 E
b10111100100000001111000000000000 F
b0010011 I
b000 K
b0100100 L
b00111 M
b10100 N
b10111100100000001111000000000000 V
b0011110100100101 p
b0000000000001111 q
1r
b00000000010000000000000000111000 v
b10111100100000001111001110110111 w
b00111 y
b10111100100000001111000000000000 z
b0011110000000000 |
#31
0r
#32
b00000000010000000000000001000000 $
b00001110111111000101010000110111 %
b00001110111111000101000000000000 &
b10111100100000001111010010010100 *
b00000000010000000000000001000100 +
b00000000010000000000000001000100 ,
b00001110111111000101010000110111 .
b01010 /
b00001110111111000101000000000000 0
b00000 1
b01000 3
b00000000000000000000000000000000 :
b00001110111111000101000000000000 <
b00000000000000000000000000000000 >
b00001110111111000101000000000000 ?
b00000000010000000000000000111100 A
b01001001010000111000001110010011 B
b10111100100000001111010010010100 F
b0110111 I
b01000 J
b101 K
b0000111 L
b11000 M
b01111 N
b10111100100000001111010010010100 V
b0001010000000000 p
b0000000000010000 q
1r
b00000000010000000000000000111100 v
b01001001010000111000001110010011 w
b10111100100000001111010010010100 z
b0011110100100101 |
#33
0r
#34
b00000000010000000000000001000100 $
b11111110011001000000010000010011 %
b00001110111111000100111111100110 &
b00001110111111000101000000000000 *
b00000000010000000000000001001000 +
b00000000010000000000000001001000 ,
b11111110011001000000010000010011 .
b00000 /
b11111111111111111111111111100110 0
b01000 1
b00001110111111000101000000000000 :
b00001110111111000100111111100110 <
b00001110111111000101000000000000 >
b11111111111111111111111111100110 ?
b00000000010000000000000001000000 A
b00001110111111000101010000110111 B
b01000 E
b00001110111111000101000000000000 F
b0010011 I
b000 K
b1111111 L
b01000 M
b00110 N
b00001110111111000101000000000000 W
b10 o
b0001001111111001 p
b0000000000010001 q
1r
b00000000010000000000000001000000 v
b00001110111111000101010000110111 w
b01000 y
b00001110111111000101000000000000 z
b0001010000000000 |
#35
0r
#36
b00000000010000000000000001001000 $
b11000001110100001101010010110111 %
b11000001110100001101000000000000 &
b00001110111111000100111111100110 *
b00000000010000000000000001001100 +
b00000000010000000000000001001100 ,
b11000001110100001101010010110111 .
b01010 /
b11000001110100001101000000000000 0
b00000 1
b01001 3
b00000000000000000000000000000000 :
b11000001110100001101000000000000 <
b00000000000000000000000000000000 >
b11000001110100001101000000000000 ?
b00000000010000000000000001000100 A
b11111110011001000000010000010011 B
b00001110111111000100111111100110 F
b0110111 I
b01001 J
b101 K
b1100000 L
b00001 M
b11101 N
b00001110111111000100111111100110 W
b00 o
b0011010000000000 p
b0000000000010010 q
1r
b00000000010000000000000001000100 v
b11111110011001000000010000010011 w
b00001110111111000100111111100110 z
b0001001111111001 |
#37
0r
#38
b00000000010000000000000001001100 $
b10011111000001001000010010010011 %
b11000001110100001100100111110000 &
b11000001110100001101000000000000 *
b00000000010000000000000001010000 +
b00000000010000000000000001010000 ,
b10011111000001001000010010010011 .
b00000 /
b11111111111111111111100111110000 0
b01001 1
b11000001110100001101000000000000 :
b11000001110100001100100111110000 <
b11000001110100001101000000000000 >
b11111111111111111111100111110000 ?
b00000000010000000000000001001000 A
b11000001110100001101010010110111 B
b01001 E
b11000001110100001101000000000000 F
b0010011 I
b000 K
b1001111 L
b01001 M
b10000 N
b11000001110100001101000000000000 X
b0011001001111100 p
b0000000000010011 q
1r
b00000000010000000000000001001000 v
b11000001110100001101010010110111 w
b01001 y
b11000001110100001101000000000000 z
b0011010000000000 |
#39
0r
#40
b00000000010000000000000001010000 $
b10011000010110101110010100110111 %
b10011000010110101110000000000000 &
b11000001110100001100100111110000 *
b00000000010000000000000001010100 +
b00000000010000000000000001010100 ,
b10011000010110101110010100110111 .
b01010 /
b10011000010110101110000000000000 0
b00000 1
b01010 3
b00000000000000000000000000000000 :
b10011000010110101110000000000000 <
b00000000000000000000000000000000 >
b10011000010110101110000000000000 ?
b00000000010000000000000001001100 A
b10011111000001001000010010010011 B
b11000001110100001100100111110000 F
b0110111 I
b01010 J
b110 K
b1001100 L
b10101 M
b00101 N
b11000001110100001100100111110000 X
b1011100000000000 p
b0000000000010100 q
1r
b00000000010000000000000001001100 v
b10011111000001001000010010010011 w
b11000001110100001100100111110000 z
b0011001001111100 |
#41
0r
#42
b00000000010000000000000001010100 $
b00111011110001010000010100010011 %
b10011000010110101110001110111100 &
b10011000010110101110000000000000 *
b00000000010000000000000001011000 +
b00000000010000000000000001011000 ,
b00111011110001010000010100010011 .
b00000 /
b00000000000000000000001110111100 0
b01010 1
b10011000010110101110000000000000 :
b10011000010110101110001110111100 <
b10011000010110101110000000000000 >
b00000000000000000000001110111100 ?
b00000000010000000000000001010000 A
b10011000010110101110010100110111 B
b01010 E
b10011000010110101110000000000000 F
b0010011 I
b000 K
b0011101 L
b01010 M
b11100 N
b10011000010110101110000000000000 Y
b1011100011101111 p
b0000000000010101 q
1r
b00000000010000000000000001010000 v
b10011000010110101110010100110111 w
b01010 y
b10011000010110101110000000000000 z
b1011100000000000 |
#43
0r
#44
b00000000010000000000000001011000 $
b01110101000111101000010110110111 %
b01110101000111101000000000000000 &
b10011000010110101110001110111100 *
b00000000010000000000000001011100 +
b00000000010000000000000001011100 ,
b01110101000111101000010110110111 .
b01010 /
b01110101000111101000000000000000 0
b00000 1
b01011 3
b00000000000000000000000000000000 :
b01110101000111101000000000000000 <
b00000000000000000000000000000000 >
b01110101000111101000000000000000 ?
b00000000010000000000000001010100 A
b00111011110001010000010100010011 B
b10011000010110101110001110111100 F
b0110111 I
b01011 J
b0111010 L
b11101 M
b10001 N
b10011000010110101110001110111100 Y
b1010000000000000 p
b0000000000010110 q
1r
b00000000010000000000000001010100 v
b00111011110001010000010100010011 w
b10011000010110101110001110111100 z
b1011100011101111 |
#45
0r
