Lab3/waveform.vcd
$version Generated by VerilatedVcd $end
$timescale 1ps $end
 $scope module TOP $end
  $var wire 1 f clk [0:0] $end
  $var wire 1 g rst [0:0] $end
  $var wire 1 h commit [0:0] $end
  $var wire 1 i commit_halt [0:0] $end
  $var wire 32 j commit_pc [31:0] $end
  $var wire 32 k commit_instr [31:0] $end
  $var wire 1 l commit_reg_we [0:0] $end
  $var wire 5 m commit_reg_wa [4:0] $end
  $var wire 32 n commit_reg_wd [31:0] $end
  $var wire 1 o commit_dmem_we [0:0] $end
  $var wire 16 p commit_dmem_wa [15:0] $end
  $var wire 32 q commit_dmem_wd [31:0] $end
  $var wire 5 r debug_reg_ra [4:0] $end
  $var wire 32 s debug_reg_rd [31:0] $end
  $var wire 16 t debug_dmem_ra [15:0] $end
  $var wire 32 u debug_dmem_rd [31:0] $end
  $scope module Top $end
   $var wire 1 f clk [0:0] $end
   $var wire 1 g rst [0:0] $end
   $var wire 1 h commit [0:0] $end
   $var wire 1 i commit_halt [0:0] $end
   $var wire 32 j commit_pc [31:0] $end
   $var wire 32 k commit_instr [31:0] $end
   $var wire 1 l commit_reg_we [0:0] $end
   $var wire 5 m commit_reg_wa [4:0] $end
   $var wire 32 n commit_reg_wd [31:0] $end
   $var wire 1 o commit_dmem_we [0:0] $end
   $var wire 16 p commit_dmem_wa [15:0] $end
   $var wire 32 q commit_dmem_wd [31:0] $end
   $var wire 5 r debug_reg_ra [4:0] $end
   $var wire 32 s debug_reg_rd [31:0] $end
   $var wire 16 t debug_dmem_ra [15:0] $end
   $var wire 32 u debug_dmem_rd [31:0] $end
   $var wire 32 $ pc [31:0] $end
   $var wire 32 % instr [31:0] $end
   $var wire 32 v dmem_addr [31:0] $end
   $var wire 32 & dmem_rdata [31:0] $end
   $var wire 32 w dmem_wdata [31:0] $end
   $var wire 1 x dmem_we [0:0] $end
   $var wire 32 ' commit_dmem_wa_raw [31:0] $end
   $scope module cpu $end
    $var wire 1 f clk [0:0] $end
    $var wire 1 g rst [0:0] $end
    $var wire 1 y global_en [0:0] $end
    $var wire 32 $ imem_raddr [31:0] $end
    $var wire 32 % imem_rdata [31:0] $end
    $var wire 32 & dmem_rdata [31:0] $end
    $var wire 1 x dmem_we [0:0] $end
    $var wire 32 v dmem_addr [31:0] $end
    $var wire 32 w dmem_wdata [31:0] $end
    $var wire 1 h commit [0:0] $end
    $var wire 32 j commit_pc [31:0] $end
    $var wire 32 k commit_inst [31:0] $end
    $var wire 1 i commit_halt [0:0] $end
    $var wire 1 l commit_reg_we [0:0] $end
    $var wire 5 m commit_reg_wa [4:0] $end
    $var wire 32 n commit_reg_wd [31:0] $end
    $var wire 1 o commit_dmem_we [0:0] $end
    $var wire 32 ' commit_dmem_wa [31:0] $end
    $var wire 32 q commit_dmem_wd [31:0] $end
    $var wire 5 r debug_reg_ra [4:0] $end
    $var wire 32 s debug_reg_rd [31:0] $end
    $var wire 32 $ pc_current [31:0] $end
    $var wire 32 ( inst [31:0] $end
    $var wire 5 ) alu_op [4:0] $end
    $var wire 32 * imm [31:0] $end
    $var wire 5 + rf_ra0 [4:0] $end
    $var wire 5 , rf_ra1 [4:0] $end
    $var wire 5 - rf_wa [4:0] $end
    $var wire 1 . rf_we $end
    $var wire 1 / alu_src0_sel $end
    $var wire 1 0 alu_src1_sel $end
    $var wire 32 1 rf_rd0 [31:0] $end
    $var wire 32 2 rf_rd1 [31:0] $end
    $var wire 32 3 rf_wd [31:0] $end
    $var wire 32 4 alu_src0 [31:0] $end
    $var wire 32 5 alu_src1 [31:0] $end
    $var wire 32 3 alu_result [31:0] $end
    $var wire 1 6 commit_reg [0:0] $end
    $var wire 32 7 commit_pc_reg [31:0] $end
    $var wire 32 8 commit_inst_reg [31:0] $end
    $var wire 1 9 commit_halt_reg [0:0] $end
    $var wire 1 : commit_reg_we_reg [0:0] $end
    $var wire 5 ; commit_reg_wa_reg [4:0] $end
    $var wire 32 < commit_reg_wd_reg [31:0] $end
    $var wire 1 = commit_dmem_we_reg [0:0] $end
    $var wire 32 ' commit_dmem_wa_reg [31:0] $end
    $var wire 32 > commit_dmem_wd_reg [31:0] $end
    $scope module alu $end
     $var wire 32 4 alu_src0 [31:0] $end
     $var wire 32 5 alu_src1 [31:0] $end
     $var wire 5 ) alu_op [4:0] $end
     $var wire 32 3 alu_result [31:0] $end
    $upscope $end
    $scope module decoder $end
     $var wire 32 ( inst [31:0] $end
     $var wire 5 ) alu_op [4:0] $end
     $var wire 1 / alu_src0_sel $end
     $var wire 1 0 alu_src1_sel $end
     $var wire 5 + rf_ra0 [4:0] $end
     $var wire 5 , rf_ra1 [4:0] $end
     $var wire 5 - rf_wa [4:0] $end
     $var wire 1 . rf_we $end
     $var wire 32 * imm [31:0] $end
     $var wire 7 ? opcode [6:0] $end
     $var wire 5 @ rd [4:0] $end
     $var wire 3 A funct3 [2:0] $end
     $var wire 7 B funct7 [6:0] $end
     $var wire 5 C rs1 [4:0] $end
     $var wire 5 D rs2 [4:0] $end
    $upscope $end
    $scope module global_regfile $end
     $var wire 1 f clk [0:0] $end
     $var wire 5 + rf_ra0 [4:0] $end
     $var wire 5 , rf_ra1 [4:0] $end
     $var wire 5 - rf_wa [4:0] $end
     $var wire 1 . rf_we [0:0] $end
     $var wire 32 3 rf_wd [31:0] $end
     $var wire 32 1 rf_rd0 [31:0] $end
     $var wire 32 2 rf_rd1 [31:0] $end
     $var wire 5 r debug_rf_ra [4:0] $end
     $var wire 32 s debug_rf_rd [31:0] $end
     $var wire 32 E reg_file[0] [31:0] $end
     $var wire 32 F reg_file[1] [31:0] $end
     $var wire 32 G reg_file[2] [31:0] $end
     $var wire 32 H reg_file[3] [31:0] $end
     $var wire 32 I reg_file[4] [31:0] $end
     $var wire 32 J reg_file[5] [31:0] $end
     $var wire 32 K reg_file[6] [31:0] $end
     $var wire 32 L reg_file[7] [31:0] $end
     $var wire 32 M reg_file[8] [31:0] $end
     $var wire 32 N reg_file[9] [31:0] $end
     $var wire 32 O reg_file[10] [31:0] $end
     $var wire 32 P reg_file[11] [31:0] $end
     $var wire 32 Q reg_file[12] [31:0] $end
     $var wire 32 R reg_file[13] [31:0] $end
     $var wire 32 S reg_file[14] [31:0] $end
     $var wire 32 T reg_file[15] [31:0] $end
     $var wire 32 U reg_file[16] [31:0] $end
     $var wire 32 V reg_file[17] [31:0] $end
     $var wire 32 W reg_file[18] [31:0] $end
     $var wire 32 X reg_file[19] [31:0] $end
     $var wire 32 Y reg_file[20] [31:0] $end
     $var wire 32 Z reg_file[21] [31:0] $end
     $var wire 32 [ reg_file[22] [31:0] $end
     $var wire 32 \ reg_file[23] [31:0] $end
     $var wire 32 ] reg_file[24] [31:0] $end
     $var wire 32 ^ reg_file[25] [31:0] $end
     $var wire 32 _ reg_file[26] [31:0] $end
     $var wire 32 ` reg_file[27] [31:0] $end
     $var wire 32 a reg_file[28] [31:0] $end
     $var wire 32 b reg_file[29] [31:0] $end
     $var wire 32 c reg_file[30] [31:0] $end
     $var wire 32 d reg_file[31] [31:0] $end
     $var wire 32 # i [31:0] $end
    $upscope $end
    $scope module mux0 $end
     $var wire 32 1 src0 [31:0] $end
     $var wire 32 $ src1 [31:0] $end
     $var wire 1 / sel [0:0] $end
     $var wire 32 4 res [31:0] $end
    $upscope $end
    $scope module mux1 $end
     $var wire 32 2 src0 [31:0] $end
     $var wire 32 * src1 [31:0] $end
     $var wire 1 0 sel [0:0] $end
     $var wire 32 5 res [31:0] $end
    $upscope $end
    $scope module pc_reg $end
     $var wire 1 f clk [0:0] $end
     $var wire 1 g rst [0:0] $end
     $var wire 1 y en [0:0] $end
     $var wire 32 $ pc [31:0] $end
    $upscope $end
   $upscope $end
   $scope module data_mem $end
    $var wire 16 z a [15:0] $end
    $var wire 32 w d [31:0] $end
    $var wire 1 f clk $end
    $var wire 1 x we $end
    $var wire 32 & spo [31:0] $end
    $var wire 16 t debug_a [15:0] $end
    $var wire 32 u debug_spo [31:0] $end
    $var wire 1 x cached_we $end
    $var wire 16 z cached_a [15:0] $end
    $var wire 32 w cached_d [31:0] $end
   $upscope $end
   $scope module instr_mem $end
    $var wire 16 e a [15:0] $end
    $var wire 32 % spo [31:0] $end
   $upscope $end
  $upscope $end
 $upscope $end
$enddefinitions $end


#0
b00000000000000000000000000100000 #
b00000000010000000000000000000000 $
b11111111111111111111000000110111 %
b00000000000000000000000000000000 &
b00000000000000000000000000000000 '
b11111111111111111111000000110111 (
b01010 )
b11111111111111111111000000000000 *
b00000 +
b00000 ,
b00000 -
1.
0/
10
b00000000000000000000000000000000 1
b00000000000000000000000000000000 2
b11111111111111111111000000000000 3
b00000000000000000000000000000000 4
b11111111111111111111000000000000 5
06
b00000000000000000000000000000000 7
b00000000000000000000000000000000 8
09
0:
b00000 ;
b00000000000000000000000000000000 <
0=
b00000000000000000000000000000000 >
b0110111 ?
b00000 @
b111 A
b1111111 B
b11111 C
b11111 D
b00000000000000000000000000000000 E
b00000000000000000000000000000000 F
b00000000000000000000000000000000 G
b00000000000000000000000000000000 H
b00000000000000000000000000000000 I
b00000000000000000000000000000000 J
b00000000000000000000000000000000 K
b00000000000000000000000000000000 L
b00000000000000000000000000000000 M
b00000000000000000000000000000000 N
b00000000000000000000000000000000 O
b00000000000000000000000000000000 P
b00000000000000000000000000000000 Q
b00000000000000000000000000000000 R
b00000000000000000000000000000000 S
b00000000000000000000000000000000 T
b00000000000000000000000000000000 U
b00000000000000000000000000000000 V
b00000000000000000000000000000000 W
b00000000000000000000000000000000 X
b00000000000000000000000000000000 Y
b00000000000000000000000000000000 Z
b00000000000000000000000000000000 [
b00000000000000000000000000000000 \
b00000000000000000000000000000000 ]
b00000000000000000000000000000000 ^
b00000000000000000000000000000000 _
b00000000000000000000000000000000 `
b00000000000000000000000000000000 a
b00000000000000000000000000000000 b
b00000000000000000000000000000000 c
b00000000000000000000000000000000 d
b0000000000000000 e
0f
0g
0h
0i
b00000000000000000000000000000000 j
b00000000000000000000000000000000 k
0l
b00000 m
b00000000000000000000000000000000 n
0o
b0000000000000000 p
b00000000000000000000000000000000 q
b00000 r
b00000000000000000000000000000000 s
b0000000000000000 t
b00000000000000000000000000000000 u
b00000000000000000000000000000000 v
b00000000000000000000000000000000 w
0x
1y
b0000000000000000 z
#1
b00000000010000000000000000000100 $
b00000000000000000110000000010011 %
b00000000000000000110000000010011 (
b00011 )
b00000000000000000000000000000000 *
b00000000000000000000000000000000 3
b00000000000000000000000000000000 5
16
b00000000010000000000000000000000 7
b11111111111111111111000000110111 8
1:
b11111111111111111111000000000000 <
b0010011 ?
b110 A
b0000000 B
b00000 C
b00000 D
b0000000000000001 e
1f
1h
b00000000010000000000000000000000 j
b11111111111111111111000000110111 k
1l
b11111111111111111111000000000000 n
#2
0f
#3
b00000000010000000000000000001000 $
b00000000000000000011000010110111 %
b00000000000000000011000010110111 (
b01010 )
b00000000000000000011000000000000 *
b00001 -
b00000000000000000011000000000000 3
b00000000000000000011000000000000 5
b00000000010000000000000000000100 7
b00000000000000000110000000010011 8
b00000000000000000000000000000000 <
b0110111 ?
b00001 @
b011 A
b0000000000000010 e
1f
b00000000010000000000000000000100 j
b00000000000000000110000000010011 k
b00000000000000000000000000000000 n
b11111 r
#4
0f
#5
b00000000010000000000000000001100 $
b00000000000000001110000010010011 %
b00000000000000001110000010010011 (
b00011 )
b00000000000000000000000000000000 *
b00001 +
b00000000000000000011000000000000 1
b00000000000000000011000000000000 4
b00000000000000000000000000000000 5
b00000000010000000000000000001000 7
b00000000000000000011000010110111 8
b00001 ;
b00000000000000000011000000000000 <
b0010011 ?
b110 A
b00001 C
b00000000000000000011000000000000 F
b0000000000000011 e
1f
b00000000010000000000000000001000 j
b00000000000000000011000010110111 k
b00001 m
b00000000000000000011000000000000 n
#6
0f
#7
b00000000010000000000000000010000 $
b00000000000011110001000100110111 %
b00000000000011110001000100110111 (
b01010 )
b00000000000011110001000000000000 *
b00000 +
b00010 -
b00000000000000000000000000000000 1
b00000000000011110001000000000000 3
b00000000000000000000000000000000 4
b00000000000011110001000000000000 5
b00000000010000000000000000001100 7
b00000000000000001110000010010011 8
b0110111 ?
b00010 @
b001 A
b11110 C
b0000000000000100 e
1f
b00000000010000000000000000001100 j
b00000000000000001110000010010011 k
#8
0f
#9
b00000000010000000000000000010100 $
b00000000000000010110000100010011 %
b00000000000000010110000100010011 (
b00011 )
b00000000000000000000000000000000 *
b00010 +
b00000000000011110001000000000000 1
b00000000000011110001000000000000 4
b00000000000000000000000000000000 5
b00000000010000000000000000010000 7
b00000000000011110001000100110111 8
b00010 ;
b00000000000011110001000000000000 <
b0010011 ?
b110 A
b00010 C
b00000000000011110001000000000000 G
b0000000000000101 e
1f
b00000000010000000000000000010000 j
b00000000000011110001000100110111 k
b00010 m
b00000000000011110001000000000000 n
#10
0f
#11
b00000000010000000000000000011000 $
b11111111111101011111000110110111 %
b11111111111101011111000110110111 (
b01010 )
b11111111111101011111000000000000 *
b00000 +
b00011 -
b00000000000000000000000000000000 1
b11111111111101011111000000000000 3
b00000000000000000000000000000000 4
b11111111111101011111000000000000 5
b00000000010000000000000000010100 7
b00000000000000010110000100010011 8
b0110111 ?
b00011 @
b111 A
b1111111 B
b01011 C
b11111 D
b0000000000000110 e
1f
b00000000010000000000000000010100 j
b00000000000000010110000100010011 k
#12
0f
#13
b00000000010000000000000000011100 $
b00000000000000011110000110010011 %
b00000000000000011110000110010011 (
b00011 )
b00000000000000000000000000000000 *
b00011 +
b11111111111101011111000000000000 1
b11111111111101011111000000000000 4
b00000000000000000000000000000000 5
b00000000010000000000000000011000 7
b11111111111101011111000110110111 8
b00011 ;
b11111111111101011111000000000000 <
b0010011 ?
b110 A
b0000000 B
b00011 C
b00000 D
b11111111111101011111000000000000 H
b0000000000000111 e
1f
b00000000010000000000000000011000 j
b11111111111101011111000110110111 k
b00011 m
b11111111111101011111000000000000 n
#14
0f
#15
b00000000010000000000000000100000 $
b00000000000001101100001000110111 %
b00000000000001101100001000110111 (
b01010 )
b00000000000001101100000000000000 *
b00000 +
b00100 -
b00000000000000000000000000000000 1
b00000000000001101100000000000000 3
b00000000000000000000000000000000 4
b00000000000001101100000000000000 5
b00000000010000000000000000011100 7
b00000000000000011110000110010011 8
b0110111 ?
b00100 @
b100 A
b01101 C
b0000000000001000 e
1f
b00000000010000000000000000011100 j
b00000000000000011110000110010011 k
#16
0f
#17
b00000000010000000000000000100100 $
b00000000000000100110001000010011 %
b00000000000000100110001000010011 (
b00011 )
b00000000000000000000000000000000 *
b00100 +
b00000000000001101100000000000000 1
b00000000000001101100000000000000 4
b00000000000000000000000000000000 5
b00000000010000000000000000100000 7
b00000000000001101100001000110111 8
b00100 ;
b00000000000001101100000000000000 <
b0010011 ?
b110 A
b00100 C
b00000000000001101100000000000000 I
b0000000000001001 e
1f
b00000000010000000000000000100000 j
b00000000000001101100001000110111 k
b00100 m
b00000000000001101100000000000000 n
#18
0f
#19
b00000000010000000000000000101000 $
b11111111111111110010001010110111 %
b11111111111111110010001010110111 (
b01010 )
b11111111111111110010000000000000 *
b00000 +
b00101 -
b00000000000000000000000000000000 1
b11111111111111110010000000000000 3
b00000000000000000000000000000000 4
b11111111111111110010000000000000 5
b00000000010000000000000000100100 7
b00000000000000100110001000010011 8
b0110111 ?
b00101 @
b010 A
b1111111 B
b11110 C
b11111 D
b0000000000001010 e
1f
b00000000010000000000000000100100 j
b00000000000000100110001000010011 k
#20
0f
#21
b00000000010000000000000000101100 $
b00000000000000101110001010010011 %
b00000000000000101110001010010011 (
b00011 )
b00000000000000000000000000000000 *
b00101 +
b11111111111111110010000000000000 1
b11111111111111110010000000000000 4
b00000000000000000000000000000000 5
b00000000010000000000000000101000 7
b11111111111111110010001010110111 8
b00101 ;
b11111111111111110010000000000000 <
b0010011 ?
b110 A
b0000000 B
b00101 C
b00000 D
b11111111111111110010000000000000 J
b0000000000001011 e
1f
b00000000010000000000000000101000 j
b11111111111111110010001010110111 k
b00101 m
b11111111111111110010000000000000 n
#22
0f
#23
b00000000010000000000000000110000 $
b11111111111101111100001100110111 %
b11111111111101111100001100110111 (
b01010 )
b11111111111101111100000000000000 *
b00000 +
b00110 -
b00000000000000000000000000000000 1
b11111111111101111100000000000000 3
b00000000000000000000000000000000 4
b11111111111101111100000000000000 5
b00000000010000000000000000101100 7
b00000000000000101110001010010011 8
b0110111 ?
b00110 @
b100 A
b1111111 B
b01111 C
b11111 D
b0000000000001100 e
1f
b00000000010000000000000000101100 j
b00000000000000101110001010010011 k
#24
0f
#25
b00000000010000000000000000110100 $
b00000000000000110110001100010011 %
b00000000000000110110001100010011 (
b00011 )
b00000000000000000000000000000000 *
b00110 +
b11111111111101111100000000000000 1
b11111111111101111100000000000000 4
b00000000000000000000000000000000 5
b00000000010000000000000000110000 7
b11111111111101111100001100110111 8
b00110 ;
b11111111111101111100000000000000 <
b0010011 ?
b110 A
b0000000 B
b00110 C
b00000 D
b11111111111101111100000000000000 K
b0000000000001101 e
1f
b00000000010000000000000000110000 j
b11111111111101111100001100110111 k
b00110 m
b11111111111101111100000000000000 n
#26
0f
#27
b00000000010000000000000000111000 $
b11111111111110011110001110110111 %
b11111111111110011110001110110111 (
b01010 )
b11111111111110011110000000000000 *
b00000 +
b00111 -
b00000000000000000000000000000000 1
b11111111111110011110000000000000 3
b00000000000000000000000000000000 4
b11111111111110011110000000000000 5
b00000000010000000000000000110100 7
b00000000000000110110001100010011 8
b0110111 ?
b00111 @
b1111111 B
b10011 C
b11111 D
b0000000000001110 e
1f
b00000000010000000000000000110100 j
b00000000000000110110001100010011 k
#28
0f
#29
b00000000010000000000000000111100 $
b00000000000000111110001110010011 %
b00000000000000111110001110010011 (
b00011 )
b00000000000000000000000000000000 *
b00111 +
b11111111111110011110000000000000 1
b11111111111110011110000000000000 4
b00000000000000000000000000000000 5
b00000000010000000000000000111000 7
b11111111111110011110001110110111 8
b00111 ;
b11111111111110011110000000000000 <
b0010011 ?
b0000000 B
b00111 C
b00000 D
b11111111111110011110000000000000 L
b0000000000001111 e
1f
b00000000010000000000000000111000 j
b11111111111110011110001110110111 k
b00111 m
b11111111111110011110000000000000 n
#30
0f
#31
b00000000010000000000000001000000 $
b11111111111101110101010000110111 %
b11111111111101110101010000110111 (
b01010 )
b11111111111101110101000000000000 *
b00000 +
b01000 -
b00000000000000000000000000000000 1
b11111111111101110101000000000000 3
b00000000000000000000000000000000 4
b11111111111101110101000000000000 5
b00000000010000000000000000111100 7
b00000000000000111110001110010011 8
b0110111 ?
b01000 @
b101 A
b1111111 B
b01110 C
b11111 D
b0000000000010000 e
1f
b00000000010000000000000000111100 j
b00000000000000111110001110010011 k
#32
0f
#33
b00000000010000000000000001000100 $
b00000000000001000110010000010011 %
b00000000000001000110010000010011 (
b00011 )
b00000000000000000000000000000000 *
b01000 +
b11111111111101110101000000000000 1
b11111111111101110101000000000000 4
b00000000000000000000000000000000 5
b00000000010000000000000001000000 7
b11111111111101110101010000110111 8
b01000 ;
b11111111111101110101000000000000 <
b0010011 ?
b110 A
b0000000 B
b01000 C
b00000 D
b11111111111101110101000000000000 M
b0000000000010001 e
1f
b00000000010000000000000001000000 j
b11111111111101110101010000110111 k
b01000 m
b11111111111101110101000000000000 n
#34
0f
#35
b00000000010000000000000001001000 $
b00000000000011110010010010110111 %
b00000000000011110010010010110111 (
b01010 )
b00000000000011110010000000000000 *
b00000 +
b01001 -
b00000000000000000000000000000000 1
b00000000000011110010000000000000 3
b00000000000000000000000000000000 4
b00000000000011110010000000000000 5
b00000000010000000000000001000100 7
b00000000000001000110010000010011 8
b0110111 ?
b01001 @
b010 A
b11110 C
b0000000000010010 e
1f
b00000000010000000000000001000100 j
b00000000000001000110010000010011 k
#36
0f
#37
b00000000010000000000000001001100 $
b00000000000001001110010010010011 %
b00000000000001001110010010010011 (
b00011 )
b00000000000000000000000000000000 *
b01001 +
b00000000000011110010000000000000 1
b00000000000011110010000000000000 4
b00000000000000000000000000000000 5
b00000000010000000000000001001000 7
b00000000000011110010010010110111 8
b01001 ;
b00000000000011110010000000000000 <
b0010011 ?
b110 A
b01001 C
b00000000000011110010000000000000 N
b0000000000010011 e
1f
b00000000010000000000000001001000 j
b00000000000011110010010010110111 k
b01001 m
b00000000000011110010000000000000 n
#38
0f
#39
b00000000010000000000000001010000 $
b00000000000000000010010100110111 %
b00000000000000000010010100110111 (
b01010 )
b00000000000000000010000000000000 *
b00000 +
b01010 -
b00000000000000000000000000000000 1
b00000000000000000010000000000000 3
b00000000000000000000000000000000 4
b00000000000000000010000000000000 5
b00000000010000000000000001001100 7
b00000000000001001110010010010011 8
b0110111 ?
b01010 @
b010 A
b00000 C
b0000000000010100 e
1f
b00000000010000000000000001001100 j
b00000000000001001110010010010011 k
#40
0f
#41
b00000000010000000000000001010100 $
b00000000000001010110010100010011 %
b00000000000001010110010100010011 (
b00011 )
b00000000000000000000000000000000 *
b01010 +
b00000000000000000010000000000000 1
b00000000000000000010000000000000 4
b00000000000000000000000000000000 5
b00000000010000000000000001010000 7
b00000000000000000010010100110111 8
b01010 ;
b00000000000000000010000000000000 <
b0010011 ?
b110 A
b01010 C
b00000000000000000010000000000000 O
b0000000000010101 e
1f
b00000000010000000000000001010000 j
b00000000000000000010010100110111 k
b01010 m
b00000000000000000010000000000000 n
#42
0f
#43
b00000000010000000000000001011000 $
b11111111111111110101010110110111 %
b11111111111111110101010110110111 (
b01010 )
b11111111111111110101000000000000 *
b00000 +
b01011 -
b00000000000000000000000000000000 1
b11111111111111110101000000000000 3
b00000000000000000000000000000000 4
b11111111111111110101000000000000 5
b00000000010000000000000001010100 7
b00000000000001010110010100010011 8
b0110111 ?
b01011 @
b101 A
b1111111 B
b11110 C
b11111 D
b0000000000010110 e
1f
b00000000010000000000000001010100 j
b00000000000001010110010100010011 k
#44
0f
#45
b00000000010000000000000001011100 $
b00000000000001011110010110010011 %
b00000000000001011110010110010011 (
b00011 )
b00000000000000000000000000000000 *
b01011 +
b11111111111111110101000000000000 1
b11111111111111110101000000000000 4
b00000000000000000000000000000000 5
b00000000010000000000000001011000 7
b11111111111111110101010110110111 8
b01011 ;
b11111111111111110101000000000000 <
b0010011 ?
b110 A
b0000000 B
b01011 C
b00000 D
b11111111111111110101000000000000 P
b0000000000010111 e
1f
b00000000010000000000000001011000 j
b11111111111111110101010110110111 k
b01011 m
b11111111111111110101000000000000 n
#46
0f
#47
b00000000010000000000000001100000 $
b11111111111111110001011000110111 %
b11111111111111110001011000110111 (
b01010 )
b11111111111111110001000000000000 *
b00000 +
b01100 -
b00000000000000000000000000000000 1
b11111111111111110001000000000000 3
b00000000000000000000000000000000 4
b11111111111111110001000000000000 5
b00000000010000000000000001011100 7
b00000000000001011110010110010011 8
b0110111 ?
b01100 @
b001 A
b1111111 B
b11110 C
b11111 D
b0000000000011000 e
1f
b00000000010000000000000001011100 j
b00000000000001011110010110010011 k
#48
0f
#49
b00000000010000000000000001100100 $
b00000000000001100110011000010011 %
b00000000000001100110011000010011 (
b00011 )
b00000000000000000000000000000000 *
b01100 +
b11111111111111110001000000000000 1
b11111111111111110001000000000000 4
b00000000000000000000000000000000 5
b00000000010000000000000001100000 7
b11111111111111110001011000110111 8
b01100 ;
b11111111111111110001000000000000 <
b0010011 ?
b110 A
b0000000 B
b01100 C
b00000 D
b11111111111111110001000000000000 Q
b0000000000011001 e
1f
b00000000010000000000000001100000 j
b11111111111111110001011000110111 k
b01100 m
b11111111111111110001000000000000 n
#50
0f
#51
b00000000010000000000000001101000 $
b00000000000000000100011010110111 %
b00000000000000000100011010110111 (
b01010 )
b00000000000000000100000000000000 *
b00000 +
b01101 -
b00000000000000000000000000000000 1
b00000000000000000100000000000000 3
b00000000000000000000000000000000 4
b00000000000000000100000000000000 5
b00000000010000000000000001100100 7
b00000000000001100110011000010011 8
b0110111 ?
b01101 @
b100 A
b00000 C
b0000000000011010 e
1f
b00000000010000000000000001100100 j
b00000000000001100110011000010011 k
#52
0f
#53
b00000000010000000000000001101100 $
b00000000000001101110011010010011 %
b00000000000001101110011010010011 (
b00011 )
b00000000000000000000000000000000 *
b01101 +
b00000000000000000100000000000000 1
b00000000000000000100000000000000 4
b00000000000000000000000000000000 5
b00000000010000000000000001101000 7
b00000000000000000100011010110111 8
b01101 ;
b00000000000000000100000000000000 <
b0010011 ?
b110 A
b01101 C
b00000000000000000100000000000000 R
b0000000000011011 e
1f
b00000000010000000000000001101000 j
b00000000000000000100011010110111 k
b01101 m
b00000000000000000100000000000000 n
#54
0f
#55
b00000000010000000000000001110000 $
b00000000000010101101011100110111 %
b00000000000010101101011100110111 (
b01010 )
b00000000000010101101000000000000 *
b00000 +
b01110 -
b00000000000000000000000000000000 1
b00000000000010101101000000000000 3
b00000000000000000000000000000000 4
b00000000000010101101000000000000 5
b00000000010000000000000001101100 7
b00000000000001101110011010010011 8
b0110111 ?
b01110 @
b101 A
b10101 C
b0000000000011100 e
1f
b00000000010000000000000001101100 j
b00000000000001101110011010010011 k
#56
0f
#57
b00000000010000000000000001110100 $
b00000000000001110110011100010011 %
b00000000000001110110011100010011 (
b00011 )
b00000000000000000000000000000000 *
b01110 +
b00000000000010101101000000000000 1
b00000000000010101101000000000000 4
b00000000000000000000000000000000 5
b00000000010000000000000001110000 7
b00000000000010101101011100110111 8
b01110 ;
b00000000000010101101000000000000 <
b0010011 ?
b110 A
b01110 C
b00000000000010101101000000000000 S
b0000000000011101 e
1f
b00000000010000000000000001110000 j
b00000000000010101101011100110111 k
b01110 m
b00000000000010101101000000000000 n
#58
0f
#59
b00000000010000000000000001111000 $
b11111111111110010101011110110111 %
b11111111111110010101011110110111 (
b01010 )
b11111111111110010101000000000000 *
b00000 +
b01111 -
b00000000000000000000000000000000 1
b11111111111110010101000000000000 3
b00000000000000000000000000000000 4
b11111111111110010101000000000000 5
b00000000010000000000000001110100 7
b00000000000001110110011100010011 8
b0110111 ?
b01111 @
b101 A
b1111111 B
b10010 C
b11111 D
b0000000000011110 e
1f
b00000000010000000000000001110100 j
b00000000000001110110011100010011 k
#60
0f
#61
b00000000010000000000000001111100 $
b00000000000001111110011110010011 %
b00000000000001111110011110010011 (
b00011 )
b00000000000000000000000000000000 *
b01111 +
b11111111111110010101000000000000 1
b11111111111110010101000000000000 4
b00000000000000000000000000000000 5
b00000000010000000000000001111000 7
b11111111111110010101011110110111 8
b01111 ;
b11111111111110010101000000000000 <
b0010011 ?
b110 A
b0000000 B
b01111 C
b00000 D
b11111111111110010101000000000000 T
b0000000000011111 e
1f
b00000000010000000000000001111000 j
b11111111111110010101011110110111 k
b01111 m
b11111111111110010101000000000000 n
#62
0f
#63
b00000000010000000000000010000000 $
b11111111111110101100100000110111 %
b11111111111110101100100000110111 (
b01010 )
b11111111111110101100000000000000 *
b00000 +
b10000 -
b00000000000000000000000000000000 1
b11111111111110101100000000000000 3
b00000000000000000000000000000000 4
b11111111111110101100000000000000 5
b00000000010000000000000001111100 7
b00000000000001111110011110010011 8
b0110111 ?
b10000 @
b100 A
b1111111 B
b10101 C
b11111 D
b0000000000100000 e
1f
b00000000010000000000000001111100 j
b00000000000001111110011110010011 k
#64
0f
#65
b00000000010000000000000010000100 $
b00000000000010000110100000010011 %
b00000000000010000110100000010011 (
b00011 )
b00000000000000000000000000000000 *
b10000 +
b11111111111110101100000000000000 1
b11111111111110101100000000000000 4
b00000000000000000000000000000000 5
b00000000010000000000000010000000 7
b11111111111110101100100000110111 8
b10000 ;
b11111111111110101100000000000000 <
b0010011 ?
b110 A
b0000000 B
b10000 C
b00000 D
b11111111111110101100000000000000 U
b0000000000100001 e
1f
b00000000010000000000000010000000 j
b11111111111110101100100000110111 k
b10000 m
b11111111111110101100000000000000 n
#66
0f
#67
b00000000010000000000000010001000 $
b11111111111111111001100010110111 %
b11111111111111111001100010110111 (
b01010 )
b11111111111111111001000000000000 *
b00000 +
b10001 -
b00000000000000000000000000000000 1
b11111111111111111001000000000000 3
b00000000000000000000000000000000 4
b11111111111111111001000000000000 5
b00000000010000000000000010000100 7
b00000000000010000110100000010011 8
b0110111 ?
b10001 @
b001 A
b1111111 B
b11111 C
b11111 D
b0000000000100010 e
1f
b00000000010000000000000010000100 j
b00000000000010000110100000010011 k
#68
0f
#69
b00000000010000000000000010001100 $
b00000000000010001110100010010011 %
b00000000000010001110100010010011 (
b00011 )
b00000000000000000000000000000000 *
b10001 +
b11111111111111111001000000000000 1
b11111111111111111001000000000000 4
b00000000000000000000000000000000 5
b00000000010000000000000010001000 7
b11111111111111111001100010110111 8
b10001 ;
b11111111111111111001000000000000 <
b0010011 ?
b110 A
b0000000 B
b10001 C
b00000 D
b11111111111111111001000000000000 V
b0000000000100011 e
1f
b00000000010000000000000010001000 j
b11111111111111111001100010110111 k
b10001 m
b11111111111111111001000000000000 n
#70
0f
#71
b00000000010000000000000010010000 $
b11111111111101000000100100110111 %
b11111111111101000000100100110111 (
b01010 )
b11111111111101000000000000000000 *
b00000 +
b10010 -
b00000000000000000000000000000000 1
b11111111111101000000000000000000 3
b00000000000000000000000000000000 4
b11111111111101000000000000000000 5
b00000000010000000000000010001100 7
b00000000000010001110100010010011 8
b0110111 ?
b10010 @
b000 A
b1111111 B
b01000 C
b11111 D
b0000000000100100 e
1f
b00000000010000000000000010001100 j
b00000000000010001110100010010011 k
#72
0f
